<svg version="1.1" id="canvaspc" xmlns="http://www.w3.org/2000/svg" xmlns:xlink="http://www.w3.org/1999/xlink" x="0px"
	 y="0px" viewBox="0 0 894.1 248.7" style="enable-background:new 0 0 894.1 248.7;" xml:space="preserve">
<style type="text/css">
    #canvaspc{opacity:0}
	.pc-st0{fill:none;stroke:#251E1C;stroke-width:2.5756;stroke-miterlimit:10;}
	.pc-st1{fill:none;stroke:#251E1C;stroke-width:2.576;stroke-miterlimit:10;fill-opacity:0; fill-opacity 1s;}
    .fill.pc-st1{fill-opacity:1;}
</style>
<path class="pc-st0" d="M1.4,51.1v-0.3C1.4,25,21.1,3.2,48.9,3.2c16.1,0,26,4.5,35.4,12.5L74.1,27.9C67,21.9,60,18,48.3,18
	c-17,0-29.9,14.9-29.9,32.5v0.3c0,19,12.5,32.9,31.4,32.9c8.7,0,16.6-2.8,22.3-7V59.5H48.4V45.4h39.3v38.7
	c-9.1,7.8-22.1,14.4-38.5,14.4C20.4,98.5,1.4,78,1.4,51.1z"/>
<path class="pc-st0" d="M112.2,27.4h15.9v15.7c4.3-10.4,12.4-17.5,24.6-17v16.9h-0.9c-14,0-23.7,9.1-23.7,27.5v26.5h-15.9V27.4z"/>
<path class="pc-st0" d="M168,62.6v-0.3c0-19.9,15.8-36.4,37.1-36.4s37,16.2,37,36.1v0.3c0,19.8-15.8,36.2-37.3,36.2
	C183.7,98.5,168,82.3,168,62.6z M226.2,62.6v-0.3c0-12.3-8.8-22.4-21.3-22.4c-12.8,0-20.9,10-20.9,22.1v0.3
	c0,12.1,8.8,22.4,21.2,22.4C218.1,84.7,226.2,74.5,226.2,62.6z"/>
<path class="pc-st0" d="M255.2,27.4h16.3l14,47.7l15.4-47.9h13.6L330,75.1l14.2-47.7h15.9l-22.8,70.1h-14.2l-15.5-47.6L292,97.5h-14.2
	L255.2,27.4z"/>
<path class="pc-st0" d="M385.6,77.7V41.1h-8.8V27.4h8.8V8.3h15.9v19.1h18.7v13.7h-18.7v34.1c0,6.2,3.2,8.7,8.6,8.7
	c3.6,0,6.7-0.8,9.9-2.4v13c-4,2.2-8.4,3.6-14.4,3.6C393.9,98.1,385.6,93,385.6,77.7z"/>
<path class="pc-st0" d="M444.2,0.8h15.9v37.4c4.5-6.6,10.9-12.3,21.7-12.3c15.7,0,24.8,10.5,24.8,26.7v44.3h-15.9V57.4
	c0-10.8-5.4-17-14.9-17c-9.2,0-15.7,6.5-15.7,17.3v39.3h-15.9V0.8z"/>
<path class="pc-st0" d="M559.4,4.7h16.2v38.3h44V4.7h16.2v92.2h-16.2V58.1h-44v38.9h-16.2V4.7z"/>
<path class="pc-st0" d="M703.8,96.9v-8.6c-4.7,5.7-12,10-22.5,10c-13.2,0-24.8-7.5-24.8-21.5v-0.3c0-15.4,12-22.8,28.2-22.8
	c8.4,0,13.8,1.2,19.2,2.9v-1.3c0-9.6-6.1-14.9-17.1-14.9c-7.8,0-13.6,1.7-19.9,4.3l-4.3-12.8c7.6-3.4,15.1-5.8,26.5-5.8
	c20.5,0,30.6,10.8,30.6,29.4v41.2H703.8z M704.2,67.8c-4.1-1.6-9.7-2.8-15.9-2.8c-10,0-15.9,4.1-15.9,10.8v0.3
	c0,6.6,5.9,10.3,13.4,10.3c10.5,0,18.4-5.9,18.4-14.6V67.8z"/>
<path class="pc-st0" d="M740,62.6v-0.3c0-19.8,15.3-36.4,36.1-36.4c13.2,0,21.3,4.9,27.8,12L794,48.6c-4.9-5.1-10-8.7-18-8.7
	c-11.6,0-20,10-20,22.1v0.3c0,12.4,8.6,22.4,20.8,22.4c7.5,0,13-3.6,18-8.7l9.6,9.5c-6.8,7.6-14.9,13-28.5,13
	C755.3,98.5,740,82.3,740,62.6z"/>
<path class="pc-st0" d="M827,0.8h15.9v57.4l28.8-30.8h19.4l-27.7,28.3L892,96.9h-18.4l-20.9-30l-9.7,10.1v19.9H827V0.8z"/>
<path class="pc-st0" d="M1.4,179.5v-0.3c0-26.2,19.6-47.7,47.6-47.7c17,0,27.3,5.9,36.1,14.4l-10.4,12c-7.4-6.9-15.3-11.5-25.8-11.5
	c-17.7,0-30.4,14.5-30.4,32.5v0.3c0,18,12.8,32.8,30.4,32.8c11.3,0,18.6-4.6,26.5-12l10.4,10.5c-9.6,10-20.2,16.3-37.4,16.3
	C21.4,226.9,1.4,205.9,1.4,179.5z"/>
<path class="pc-st0" d="M102.3,190.9v-0.3c0-19.9,15.8-36.4,37.1-36.4s37,16.2,37,36.1v0.3c0,19.8-15.8,36.2-37.3,36.2
	C118,226.9,102.3,210.7,102.3,190.9z M160.5,190.9v-0.3c0-12.3-8.8-22.4-21.3-22.4c-12.8,0-20.9,10-20.9,22.1v0.3
	c0,12.1,8.8,22.4,21.2,22.4C152.3,213.1,160.5,202.9,160.5,190.9z"/>
<path class="pc-st0" d="M197.9,155.8h15.9v10.5c4.5-6.2,10.5-12,21.2-12c10,0,17,4.9,20.7,12.3c5.7-7.4,13-12.3,23.6-12.3
	c15.1,0,24.4,9.6,24.4,26.6v44.4h-15.9v-39.5c0-11.1-5.1-17-14.1-17c-8.7,0-14.9,6.1-14.9,17.3v39.3h-15.9v-39.7
	c0-10.8-5.3-16.9-14.1-16.9c-8.8,0-14.9,6.6-14.9,17.4v39.1h-15.9V155.8z"/>
<path class="pc-st0" d="M328.3,155.8h15.9v11.6c5.1-7.2,12.4-13,23.6-13c16.5,0,32.4,13,32.4,36.1v0.3c0,23.1-15.8,36.1-32.4,36.1
	c-11.5,0-18.7-5.8-23.6-12.3v31.9h-15.9V155.8z M384,190.7v-0.3c0-13.4-9.1-22.3-19.9-22.3s-20.3,9-20.3,22.3v0.3
	c0,13.4,9.5,22.3,20.3,22.3C375.1,212.9,384,204.4,384,190.7z"/>
<path class="pc-st0" d="M464.4,225.3v-8.6c-4.7,5.7-12,10-22.5,10c-13.2,0-24.8-7.5-24.8-21.5V205c0-15.4,12-22.8,28.2-22.8
	c8.4,0,13.8,1.2,19.2,2.9v-1.3c0-9.6-6.1-14.9-17.1-14.9c-7.8,0-13.6,1.7-19.9,4.3l-4.3-12.8c7.6-3.4,15.1-5.8,26.5-5.8
	c20.5,0,30.6,10.8,30.6,29.4v41.2H464.4z M464.8,196.2c-4.1-1.6-9.7-2.8-15.9-2.8c-10,0-15.9,4.1-15.9,10.8v0.3
	c0,6.6,5.9,10.3,13.4,10.3c10.5,0,18.4-5.9,18.4-14.6V196.2z"/>
<path class="pc-st1" d="M504.4,155.8h15.9v10.8c4.5-6.6,10.9-12.3,21.7-12.3c15.7,0,24.8,10.5,24.8,26.7v44.3h-15.9v-39.5
	c0-10.8-5.4-17-14.9-17c-9.2,0-15.7,6.5-15.7,17.3v39.3h-15.9V155.8z"/>
<path class="pc-st0" d="M589.1,242.6l5.4-11.9c2.9,1.6,6.1,2.6,9.4,2.6c4.5,0,7.2-2,9.9-8l-29-69.6h17l19.8,51.6l18-51.6h16.6
	l-27.7,71.5c-5.5,14.2-11.7,19.5-22.9,19.5C598.9,246.8,594,245.2,589.1,242.6z"/>
</svg>
