<svg version="1.1" id="canvassp" xmlns="http://www.w3.org/2000/svg" xmlns:xlink="http://www.w3.org/1999/xlink" x="0px"
	 y="0px" viewBox="0 0 246.6 147.3" style="enable-background:new 0 0 246.6 147.3;" xml:space="preserve">
<style type="text/css">
    #canvassp{opacity:0}
	.sp-st0{fill:none;stroke:#251E1C;stroke-width:0.9654;stroke-miterlimit:10;}
	.sp-st1{fill:none;stroke:#251E1C;stroke-width:0.965;stroke-miterlimit:10;fill-opacity:0; transition: fill-opacity 1s;}
    .fill.sp-st1{fill-opacity:1;}
</style>
<g>
	<path class="sp-st0" d="M0.5,19.3L0.5,19.3c0-9.8,7.4-18,17.8-18c6,0,9.7,1.7,13.3,4.7l-3.9,4.6C25.1,8.4,22.5,7,18.1,7
		C11.7,7,6.9,12.5,6.9,19.1v0.1c0,7.1,4.7,12.3,11.8,12.3c3.3,0,6.2-1,8.3-2.6v-6.5h-8.8v-5.3h14.7v14.5c-3.4,2.9-8.3,5.4-14.4,5.4
		C7.6,37.1,0.5,29.4,0.5,19.3z"/>
	<path class="sp-st0" d="M42,10.5h6v5.9c1.6-3.9,4.6-6.6,9.2-6.4v6.3h-0.3c-5.2,0-8.9,3.4-8.9,10.3v9.9h-6V10.5z"/>
	<path class="sp-st0" d="M62.9,23.6L62.9,23.6c0-7.6,5.9-13.7,13.9-13.7S90.7,16,90.7,23.4v0.1c0,7.4-5.9,13.6-14,13.6
		C68.8,37.1,62.9,31,62.9,23.6z M84.8,23.6L84.8,23.6c0-4.7-3.3-8.5-8-8.5c-4.8,0-7.9,3.8-7.9,8.3v0.1c0,4.5,3.3,8.4,7.9,8.4
		C81.7,31.9,84.8,28.1,84.8,23.6z"/>
	<path class="sp-st0" d="M95.6,10.5h6.1l5.2,17.9l5.8-18h5.1l5.8,18l5.3-17.9h6l-8.5,26.3h-5.3l-5.8-17.8l-5.9,17.8h-5.3L95.6,10.5z"/>
	<path class="sp-st0" d="M144.5,29.3V15.6h-3.3v-5.1h3.3V3.3h6v7.2h7v5.1h-7v12.8c0,2.3,1.2,3.3,3.2,3.3c1.3,0,2.5-0.3,3.7-0.9v4.9
		c-1.5,0.8-3.2,1.3-5.4,1.3C147.6,37,144.5,35,144.5,29.3z"/>
	<path class="sp-st0" d="M166.5,0.5h6v14c1.7-2.5,4.1-4.6,8.1-4.6c5.9,0,9.3,4,9.3,10v16.6h-6V21.7c0-4-2-6.4-5.6-6.4
		c-3.5,0-5.9,2.4-5.9,6.5v14.7h-6V0.5z"/>
	<path class="sp-st0" d="M3.3,53.3h6.1v14.4h16.5V53.3h6.1v34.6h-6.1V73.3H9.4v14.6H3.3V53.3z"/>
	<path class="sp-st0" d="M57.1,87.9v-3.2c-1.8,2.1-4.5,3.8-8.4,3.8c-4.9,0-9.3-2.8-9.3-8v-0.1c0-5.8,4.5-8.5,10.6-8.5
		c3.2,0,5.2,0.4,7.2,1.1v-0.5c0-3.6-2.3-5.6-6.4-5.6c-2.9,0-5.1,0.6-7.5,1.6l-1.6-4.8c2.9-1.3,5.7-2.2,9.9-2.2c7.7,0,11.5,4,11.5,11
		v15.5H57.1z M57.2,77c-1.5-0.6-3.7-1-6-1c-3.8,0-6,1.5-6,4v0.1c0,2.5,2.2,3.9,5,3.9c4,0,6.9-2.2,6.9-5.5V77z"/>
	<path class="sp-st0" d="M70.6,75L70.6,75c0-7.5,5.7-13.7,13.5-13.7c4.9,0,8,1.8,10.4,4.5l-3.7,4c-1.8-1.9-3.8-3.3-6.8-3.3
		c-4.3,0-7.5,3.8-7.5,8.3v0.1c0,4.6,3.2,8.4,7.8,8.4c2.8,0,4.9-1.3,6.8-3.3l3.6,3.6c-2.6,2.9-5.6,4.9-10.7,4.9
		C76.4,88.5,70.6,82.4,70.6,75z"/>
	<path class="sp-st0" d="M103.2,51.9h6v21.5L120,61.8h7.3l-10.4,10.6l10.7,15.5h-6.9l-7.9-11.3l-3.7,3.8v7.5h-6V51.9z"/>
	<path class="sp-st0" d="M0.5,121.3L0.5,121.3c0-9.9,7.4-18,17.8-18c6.4,0,10.2,2.2,13.5,5.4l-3.9,4.5c-2.8-2.6-5.7-4.3-9.7-4.3
		c-6.6,0-11.4,5.4-11.4,12.2v0.1c0,6.8,4.8,12.3,11.4,12.3c4.2,0,7-1.7,9.9-4.5l3.9,4c-3.6,3.8-7.6,6.1-14,6.1
		C8,139.1,0.5,131.2,0.5,121.3z"/>
	<path class="sp-st0" d="M38.3,125.6L38.3,125.6c0-7.6,5.9-13.7,13.9-13.7s13.9,6.1,13.9,13.5v0.1c0,7.4-5.9,13.6-14,13.6
		C44.2,139.1,38.3,133,38.3,125.6z M60.1,125.6L60.1,125.6c0-4.7-3.3-8.5-8-8.5c-4.8,0-7.9,3.8-7.9,8.3v0.1c0,4.5,3.3,8.4,7.9,8.4
		C57.1,133.9,60.1,130.1,60.1,125.6z"/>
	<path class="sp-st0" d="M74.1,112.4h6v4c1.7-2.3,4-4.5,7.9-4.5c3.8,0,6.4,1.8,7.8,4.6c2.1-2.8,4.9-4.6,8.8-4.6c5.7,0,9.1,3.6,9.1,10
		v16.6h-6v-14.8c0-4.1-1.9-6.4-5.3-6.4c-3.3,0-5.6,2.3-5.6,6.5v14.7h-6v-14.9c0-4-2-6.3-5.3-6.3c-3.3,0-5.6,2.5-5.6,6.5v14.7h-6
		V112.4z"/>
	<path class="sp-st0" d="M123,112.4h6v4.3c1.9-2.7,4.6-4.9,8.8-4.9c6.2,0,12.1,4.9,12.1,13.5v0.1c0,8.6-5.9,13.5-12.1,13.5
		c-4.3,0-7-2.2-8.8-4.6v11.9h-6V112.4z M143.9,125.5L143.9,125.5c0-5.1-3.4-8.4-7.5-8.4s-7.6,3.4-7.6,8.3v0.1c0,5,3.6,8.3,7.6,8.3
		C140.6,133.9,143.9,130.7,143.9,125.5z"/>
	<path class="sp-st0" d="M174,138.5v-3.2c-1.8,2.1-4.5,3.8-8.4,3.8c-4.9,0-9.3-2.8-9.3-8v-0.1c0-5.8,4.5-8.5,10.6-8.5
		c3.2,0,5.2,0.4,7.2,1.1V123c0-3.6-2.3-5.6-6.4-5.6c-2.9,0-5.1,0.6-7.5,1.6l-1.6-4.8c2.9-1.3,5.7-2.2,9.9-2.2c7.7,0,11.5,4,11.5,11
		v15.5H174z M174.2,127.6c-1.5-0.6-3.7-1-6-1c-3.8,0-6,1.5-6,4v0.1c0,2.5,2.2,3.9,5,3.9c4,0,6.9-2.2,6.9-5.5V127.6z"/>
	<path class="sp-st0" d="M189,112.4h6v4c1.7-2.5,4.1-4.6,8.1-4.6c5.9,0,9.3,4,9.3,10v16.6h-6v-14.8c0-4-2-6.4-5.6-6.4
		c-3.5,0-5.9,2.4-5.9,6.5v14.7h-6V112.4z"/>
	<path class="sp-st1" d="M220.8,145l2-4.4c1.1,0.6,2.3,1,3.5,1c1.7,0,2.7-0.7,3.7-3l-10.9-26.1h6.4l7.4,19.4l6.8-19.4h6.2l-10.4,26.8
		c-2.1,5.3-4.4,7.3-8.6,7.3C224.4,146.6,222.6,146,220.8,145z"/>
</g>
</svg>
